\BOOKMARK [1][-]{section.1}{\376\377\000\332\000v\000o\000d}{}% 1
\BOOKMARK [1][-]{section.2}{\376\377\000S\000o\000u\001\015\000a\000s\000n\000\375\000\040\000s\000t\000a\000v\000\040\001\131\000e\001\141\000e\000n\000\355\000\040\000p\000r\000o\000b\000l\000e\000m\000a\000t\000i\000k\000y}{}% 2
\BOOKMARK [1][-]{section.3}{\376\377\000M\000o\001\176\000n\000o\000s\000t\000i\000\040\001\131\000e\001\141\000e\000n\000\355}{}% 3
\BOOKMARK [1][-]{section.4}{\376\377\000Z\000v\000o\000l\000e\000n\000\351\000\040\001\131\000e\001\141\000e\000n\000\355}{}% 4
\BOOKMARK [1][-]{section.5}{\376\377\000A\000k\000t\000u\000\341\000l\000n\000\355\000\040\000s\000t\000a\000v\000\040\001\131\000e\001\141\000e\000n\000\355}{}% 5
\BOOKMARK [1][-]{section.6}{\376\377\000Z\000\341\000v\001\033\000r}{}% 6
