\select@language {czech}
\contentsline {section}{\numberline {1}\IeC {\'U}vod}{1}{section.1}
\contentsline {section}{\numberline {2}Sou\IeC {\v c}asn\IeC {\'y} stav \IeC {\v r}e\IeC {\v s}en\IeC {\'\i } problematiky}{1}{section.2}
\contentsline {section}{\numberline {3}Mo\IeC {\v z}nosti \IeC {\v r}e\IeC {\v s}en\IeC {\'\i }}{2}{section.3}
\contentsline {section}{\numberline {4}Zvolen\IeC {\'e} \IeC {\v r}e\IeC {\v s}en\IeC {\'\i }}{3}{section.4}
\contentsline {section}{\numberline {5}Aktu\IeC {\'a}ln\IeC {\'\i } stav \IeC {\v r}e\IeC {\v s}en\IeC {\'\i }}{3}{section.5}
\contentsline {section}{\numberline {6}Z\IeC {\'a}v\IeC {\v e}r}{3}{section.6}
