\relax 
\providecommand\hyper@newdestlabel[2]{}
\catcode `"\active 
\catcode `-\active 
\providecommand\HyperFirstAtBeginDocument{\AtBeginDocument}
\HyperFirstAtBeginDocument{\ifx\hyper@anchor\@undefined
\global\let\oldcontentsline\contentsline
\gdef\contentsline#1#2#3#4{\oldcontentsline{#1}{#2}{#3}}
\global\let\oldnewlabel\newlabel
\gdef\newlabel#1#2{\newlabelxx{#1}#2}
\gdef\newlabelxx#1#2#3#4#5#6{\oldnewlabel{#1}{{#2}{#3}}}
\AtEndDocument{\ifx\hyper@anchor\@undefined
\let\contentsline\oldcontentsline
\let\newlabel\oldnewlabel
\fi}
\fi}
\global\let\hyper@last\relax 
\gdef\HyperFirstAtBeginDocument#1{#1}
\providecommand\HyField@AuxAddToFields[1]{}
\providecommand\HyField@AuxAddToCoFields[2]{}
\select@language{czech}
\@writefile{toc}{\select@language{czech}}
\@writefile{lof}{\select@language{czech}}
\@writefile{lot}{\select@language{czech}}
\citation{seminareRef}
\citation{fiksRef}
\citation{frontendFrameworkRef}
\@writefile{toc}{\contentsline {section}{\numberline {1}\IeC {\'U}vod}{1}{section.1}}
\@writefile{toc}{\contentsline {section}{\numberline {2}Sou\IeC {\v c}asn\IeC {\'y} stav \IeC {\v r}e\IeC {\v s}en\IeC {\'\i } problematiky}{1}{section.2}}
\citation{rezacRef}
\@writefile{toc}{\contentsline {section}{\numberline {3}Mo\IeC {\v z}nosti \IeC {\v r}e\IeC {\v s}en\IeC {\'\i }}{2}{section.3}}
\bibcite{seminareRef}{1}
\@writefile{toc}{\contentsline {section}{\numberline {4}Zvolen\IeC {\'e} \IeC {\v r}e\IeC {\v s}en\IeC {\'\i }}{3}{section.4}}
\@writefile{toc}{\contentsline {section}{\numberline {5}Aktu\IeC {\'a}ln\IeC {\'\i } stav \IeC {\v r}e\IeC {\v s}en\IeC {\'\i }}{3}{section.5}}
\@writefile{toc}{\contentsline {section}{\numberline {6}Z\IeC {\'a}v\IeC {\v e}r}{3}{section.6}}
\bibcite{fiksRef}{2}
\bibcite{frontendFrameworkRef}{3}
\bibcite{rezacRef}{4}
